# Blender MTL File: 'c.blend'
# Material Count: 1

newmtl Material.002
Ns 225.000000
Ka 1.000000 1.000000 1.000000
Kd 0.090494 0.476990 0.216051
Ks 0.500000 0.500000 0.500000
Ke 0.000000 0.000000 0.000000
Ni 1.450000
d 1.000000
illum 2
